<?xml version="1.0" encoding="utf-8"?>
<!-- Generator: Adobe Illustrator 24.0.1, SVG Export Plug-In . SVG Version: 6.00 Build 0)  -->
<svg version="1.1" id="Layer_1" xmlns="http://www.w3.org/2000/svg" xmlns:xlink="http://www.w3.org/1999/xlink" x="0px" y="0px"
	 width="92.6px" height="100px" viewBox="0 0 92.6 100" style="enable-background:new 0 0 92.6 100;" xml:space="preserve">
<style type="text/css">
	.st0{clip-path:url(#SVGID_2_);fill:#FFFFFF;}
	.st1{clip-path:url(#SVGID_2_);fill:#36BDEE;}
	.st2{fill:#36BDEE;}
	.st3{fill:#FFFFFF;}
	.st4{opacity:0.5;}
	.st5{fill:#0465AA;}
</style>
<g>
	<g>
		<g>
			<defs>
				<path id="SVGID_1_" d="M60.6,58.7L12.2,33.7c-1.7-0.9-2.4-3-1.5-4.7L23.8,3.6c0.9-1.7,3-2.4,4.7-1.5L77,27.2
					c1.7,0.9,2.4,3,1.5,4.7L65.4,57.3C64.5,59,62.4,59.6,60.6,58.7z"/>
			</defs>
			<use xlink:href="#SVGID_1_"  style="overflow:visible;fill:#EDC2DC;"/>
			<clipPath id="SVGID_2_">
				<use xlink:href="#SVGID_1_"  style="overflow:visible;"/>
			</clipPath>
			<rect x="11" y="30" transform="matrix(0.8879 0.46 -0.46 0.8879 21.2082 -15.1781)" class="st0" width="61.5" height="11.8"/>
			<rect x="14.3" y="16.3" transform="matrix(0.8879 0.46 -0.46 0.8879 11.9406 -4.5477)" class="st1" width="2" height="11.8"/>
		</g>
		<g>
			<circle class="st2" cx="30.5" cy="12.3" r="3.8"/>
			<path class="st3" d="M30.5,8.4c0.6,0,1.2,0.1,1.8,0.4c1.9,1,2.6,3.3,1.6,5.2c-0.7,1.3-2,2.1-3.4,2.1c-0.6,0-1.2-0.1-1.8-0.4
				c-1.9-1-2.6-3.3-1.6-5.2C27.8,9.2,29.1,8.4,30.5,8.4 M30.5,7.8L30.5,7.8c-1.7,0-3.2,0.9-4,2.4c-1.1,2.2-0.3,4.9,1.9,6
				c0.6,0.3,1.3,0.5,2,0.5c1.7,0,3.2-0.9,4-2.4c1.1-2.2,0.3-4.9-1.9-6C31.9,8,31.2,7.8,30.5,7.8L30.5,7.8z"/>
		</g>
		<g class="st4">
			<path class="st2" d="M42.8,37.6c-0.5,0-0.9-0.1-1.3-0.3L20.9,26.6c-1.4-0.7-2-2.5-1.2-3.9c0.5-1,1.5-1.6,2.6-1.6
				c0.5,0,0.9,0.1,1.3,0.3l20.6,10.7c0.7,0.4,1.2,1,1.4,1.7c0.2,0.7,0.2,1.5-0.2,2.2C44.9,37,43.9,37.6,42.8,37.6z"/>
			<path class="st3" d="M22.2,22.1c0.3,0,0.6,0.1,0.9,0.2L43.7,33c0.9,0.5,1.3,1.6,0.8,2.6c-0.3,0.7-1,1-1.7,1
				c-0.3,0-0.6-0.1-0.9-0.2L21.4,25.7c-0.9-0.5-1.3-1.6-0.8-2.6C20.9,22.5,21.6,22.1,22.2,22.1 M22.2,20.1c-1.5,0-2.8,0.8-3.5,2.1
				c-0.5,0.9-0.6,2-0.3,3c0.3,1,1,1.8,1.9,2.3l20.6,10.7c0.6,0.3,1.2,0.4,1.8,0.4c1.5,0,2.8-0.8,3.5-2.1c1-1.9,0.2-4.3-1.7-5.2
				L24,20.5C23.5,20.2,22.9,20.1,22.2,20.1L22.2,20.1z"/>
		</g>
		<g class="st4">
			<path class="st2" d="M33.4,36.3c-0.3,0-0.6-0.1-0.9-0.2l-13.8-7.2c-1-0.5-1.3-1.7-0.8-2.6c0.3-0.6,1-1.1,1.7-1.1
				c0.3,0,0.6,0.1,0.9,0.2l13.8,7.2c1,0.5,1.3,1.7,0.8,2.6C34.8,35.9,34.1,36.3,33.4,36.3z"/>
			<path class="st3" d="M19.5,26.2c0.1,0,0.3,0,0.4,0.1l13.8,7.2c0.5,0.2,0.6,0.8,0.4,1.3c-0.2,0.3-0.5,0.5-0.8,0.5
				c-0.1,0-0.3,0-0.4-0.1L19.1,28c-0.5-0.2-0.6-0.8-0.4-1.3v0C18.9,26.4,19.2,26.2,19.5,26.2 M19.5,24.2c-1.1,0-2.1,0.6-2.6,1.6
				c-0.7,1.4-0.2,3.2,1.3,4L32,36.9c0.4,0.2,0.9,0.3,1.4,0.3c1.1,0,2.1-0.6,2.6-1.6c0.7-1.4,0.2-3.2-1.3-4l-13.8-7.2
				C20.5,24.3,20,24.2,19.5,24.2L19.5,24.2z"/>
		</g>
	</g>
	<g>
		<path class="st5" d="M1.5,88.4c0-15.9,0-31.9,0-47.8c0.3-0.9,0.5-1.9,1-2.8C4.6,33.2,8.4,31,13.4,31c20.7,0,41.3,0,62,0
			c1.5,0,3.1,0,4.6,0c5.1,0.1,9.1,3.2,10.6,7.9c0.2,0.7,0.4,1.4,0.6,2.1c0,15.9,0,31.7,0,47.6c-0.1,0.2-0.3,0.4-0.3,0.6
			c-1.3,5.5-5.5,9-11.1,9c-22.3,0-44.7,0.1-67,0c-4.6,0-8.1-2.2-10.1-6.4C2.2,90.8,1.9,89.6,1.5,88.4z"/>
		<path d="M80.1,93.7c2.8,0.1,5.6-1.9,6.3-4.6c0.4-1.7,0.4-3.6,0.4-5.4c0.1-3.6,0-3.6-3.6-3.5c-0.8,0-1,0.3-1,1c0,2,0,4,0,6
			c0,2-0.5,3.8-1.6,5.5C80.4,93.1,80.3,93.4,80.1,93.7z"/>
		<path d="M80.1,35.6c0.4,0.7,0.8,1.4,1.2,2.2c1.2,2.5,0.9,5.1,0.9,7.7c0,3.6,0,3.6,3.6,3.5c0.8,0,1-0.2,1-1c0-1.9,0.1-3.8-0.1-5.7
			c-0.1-1.2-0.4-2.4-1-3.5C84.8,36.7,82.1,35.3,80.1,35.6z"/>
		<path class="st2" d="M41.9,93.9c-9.4,0-18.9,0-28.3,0c-4.9,0-7.6-2.8-7.6-7.6c0-14.4,0-28.9,0-43.3c0-4.8,2.8-7.5,7.6-7.5
			c18.9,0,37.9,0,56.8,0c4.6,0,7.4,2.7,7.5,7.3c0,1.7,0,3.4,0,5.1c0,0.9-0.2,1.2-1.1,1.2c-2.6,0-5.2-0.1-7.8,0.2
			c-6.7,0.7-12,6-13.3,12.6c-1.5,7.9,3.5,16.3,12.1,18.1c2.4,0.5,5,0.3,7.5,0.4c0.6,0,1.2-0.1,1.8,0c0.3,0.1,0.8,0.5,0.8,0.7
			c0,2.1,0.1,4.3,0,6.4c-0.3,3.8-3.1,6.4-7,6.4C61.1,93.9,51.5,93.9,41.9,93.9z"/>
		<path class="st3" d="M39.8,36.3c10.2,0,20.4,0,30.6,0c4.1,0,6.4,2.3,6.5,6.4c0,0.7,0,1.5,0,2.2c0,0.9,0,1.9,0,2.9
			c0,0.1,0,0.1,0,0.2c0,0-0.1,0-0.2,0c-0.2,0-0.5,0-0.7,0c-0.3,0-0.6,0-0.8,0c-0.3,0-0.6,0-0.8,0c-1.7,0-3.6,0-5.5,0.2
			c-7,0.8-12.8,6.3-14.1,13.4c-0.8,4.1,0.1,8.5,2.4,12c2.4,3.7,6.1,6.3,10.4,7.2c1.8,0.4,3.6,0.4,5.4,0.4c0.8,0,1.5,0,2.3,0
			c0.1,0,0.2,0,0.2,0c0.2,0,0.3,0,0.5,0c0.1,0,0.3,0,0.4,0c0.2,0,0.3,0,0.4,0c0,0,0,0,0.1,0l0,0.4c0,1.9,0.1,3.8-0.1,5.7
			c-0.2,3.3-2.7,5.5-6.1,5.5c-3.6,0-7.5,0-12.4,0c-2.7,0-5.4,0-8.2,0c-2.7,0-5.4,0-8.2,0h-0.2l-8,0l-8.7,0c-3.9,0-7.7,0-11.6,0
			c-2.2,0-3.8-0.6-5-1.7c-1.1-1.1-1.7-2.8-1.7-5c0-14.4,0-28.9,0-43.3c0-4.3,2.4-6.6,6.6-6.6C22.3,36.3,31,36.3,39.8,36.3
			 M39.8,35.4c-8.7,0-17.5,0-26.2,0c-4.8,0-7.6,2.8-7.6,7.5c0,14.4,0,28.9,0,43.3c0,4.8,2.8,7.6,7.6,7.6c3.9,0,7.7,0,11.6,0
			c5.6,0,11.1,0,16.7,0c0.1,0,0.1,0,0.2,0c5.4,0,10.9,0,16.3,0c4.1,0,8.2,0,12.4,0c3.9,0,6.7-2.6,7-6.4c0.2-2.1,0.1-4.3,0-6.4
			c0-0.3-0.5-0.7-0.8-0.7c-0.2,0-0.4-0.1-0.7-0.1c-0.3,0-0.6,0-0.9,0c-0.1,0-0.1,0-0.2,0c-2.5-0.1-5.1,0.1-7.5-0.4
			c-8.5-1.8-13.6-10.2-12.1-18.1c1.3-6.6,6.6-11.9,13.3-12.6c1.8-0.2,3.6-0.2,5.4-0.2c0.6,0,1.1,0,1.7,0c0.2,0,0.5,0,0.7,0
			c0.9,0,1.2-0.3,1.1-1.2c-0.1-1.7,0-3.4,0-5.1c-0.1-4.6-2.9-7.3-7.5-7.3C60.2,35.4,50,35.4,39.8,35.4L39.8,35.4z"/>
		<path class="st2" d="M86.8,64.6c0,3.4,0,6.7,0,10.1c0,0.9-0.2,1.3-1.2,1.2c-4.8,0-9.6,0-14.4,0c-6.6-0.1-11.5-5-11.5-11.6
			c0-5.8,4.8-10.7,10.8-10.9c5.1-0.2,10.2,0,15.4-0.1c0.9,0,0.9,0.5,0.9,1.1C86.8,57.9,86.8,61.3,86.8,64.6z"/>
		<path class="st3" d="M64.4,64.6c0,3.9,2.9,6.7,6.8,6.7c3.8-0.1,6.6-3,6.6-6.9c0-3.6-3.1-6.4-6.8-6.4C67.3,58,64.4,60.9,64.4,64.6z
			"/>
		<path class="st3" d="M80.1,93.7c0.2-0.4,0.3-0.7,0.5-0.9c1-1.7,1.6-3.5,1.6-5.5c0-2,0-4,0-6c0-0.8,0.3-1,1-1
			c3.6-0.1,3.6-0.1,3.6,3.5c0,1.8,0,3.6-0.4,5.4C85.7,91.9,82.9,93.9,80.1,93.7z"/>
		<path class="st3" d="M80.1,35.6c2-0.3,4.7,1.1,5.7,3.2c0.5,1.1,0.9,2.3,1,3.5c0.2,1.9,0,3.8,0.1,5.7c0,0.8-0.3,1-1,1
			c-3.6,0.1-3.6,0.1-3.6-3.5c0-2.6,0.3-5.2-0.9-7.7C81,37,80.5,36.3,80.1,35.6z"/>
		<path class="st5" d="M64.4,64.6c0-3.7,2.8-6.6,6.5-6.6c3.7,0,6.7,2.8,6.8,6.4c0.1,3.9-2.8,6.8-6.6,6.9
			C67.4,71.3,64.5,68.5,64.4,64.6z"/>
		<path class="st3" d="M73.3,64.6c0,1.3-0.9,2.2-2.2,2.3c-1.3,0-2.4-1-2.4-2.3c0-1.2,1-2.2,2.3-2.2C72.3,62.4,73.3,63.3,73.3,64.6z"
			/>
	</g>
</g>
</svg>
