<?xml version="1.0" encoding="utf-8"?>
<!-- Generator: Adobe Illustrator 16.0.0, SVG Export Plug-In . SVG Version: 6.00 Build 0)  -->
<!DOCTYPE svg PUBLIC "-//W3C//DTD SVG 1.1//EN" "http://www.w3.org/Graphics/SVG/1.1/DTD/svg11.dtd">
<svg version="1.1" id="Layer_1" xmlns="http://www.w3.org/2000/svg" xmlns:xlink="http://www.w3.org/1999/xlink" x="0px" y="0px"
	 width="60px" height="60px" viewBox="0 0 60 60" enable-background="new 0 0 60 60" xml:space="preserve">
<g id="Group_547">
	<path id="Path_199" fill="#0F96DC" d="M12.96,37.445c0.323-5.699,2.113-11.22,5.196-16.025c3.132-5.394,6.726-10.507,10.74-15.282
		c0.438-0.534,0.792-1.386,1.68-0.282c5.968,6.928,10.91,14.677,14.676,23.01c3.108,6.612,2.107,14.425-2.568,20.04
		c-4.566,5.248-11.896,7.137-18.432,4.752C17.849,51.557,13.401,45.73,13.062,39C13.026,38.454,12.99,37.95,12.96,37.445z"/>
</g>
</svg>
