<?xml version="1.0" encoding="utf-8"?>
<!-- Generator: Adobe Illustrator 16.0.0, SVG Export Plug-In . SVG Version: 6.00 Build 0)  -->
<!DOCTYPE svg PUBLIC "-//W3C//DTD SVG 1.1//EN" "http://www.w3.org/Graphics/SVG/1.1/DTD/svg11.dtd">
<svg version="1.1" id="Layer_1" xmlns="http://www.w3.org/2000/svg" xmlns:xlink="http://www.w3.org/1999/xlink" x="0px" y="0px"
	 width="60px" height="60px" viewBox="0 0 60 60" enable-background="new 0 0 60 60" xml:space="preserve">
<g id="Group_549">
	<g id="Group_235">
		<path id="Path_130" fill="#0F96DC" d="M23.16,17.568c-0.151-1.674-0.921-3.231-2.16-4.368c-1.254-1.266-2.496-2.556-3.78-3.804
			c-0.564-0.54-0.648-0.996,0-1.506l0.246-0.246c2.502-2.628,2.856-2.682,6.096-0.942c5.331,2.856,8.27,8.774,7.327,14.748
			c-0.234,1.036,0.133,2.115,0.947,2.796c5.844,5.78,11.66,11.58,17.448,17.4c2.049,1.852,2.821,4.732,1.974,7.361
			c-0.676,2.566-2.785,4.502-5.4,4.956c-2.458,0.539-5.018-0.271-6.719-2.124c-5.809-5.808-11.665-11.574-17.449-17.4
			c-0.718-0.852-1.86-1.217-2.94-0.941C11.841,34.446,5.232,30.355,3,23.748c-0.492-1.602,0.552-2.238,1.398-3.06
			c1.872-1.836,1.2-1.8,3.168-0.054c1.29,1.158,2.4,2.508,3.768,3.6c2.152,1.838,5.211,2.167,7.704,0.828
			C21.859,23.688,23.51,20.687,23.16,17.568z"/>
		<path id="Path_131" fill="#0F96DC" d="M16.494,54.132c-2.55-0.208-4.754-1.862-5.664-4.254c-1.247-2.547-0.768-5.602,1.2-7.644
			c1.632-1.801,3.48-3.475,5.172-5.256c0.6-0.654,1.008-0.601,1.608,0c2.8,2.867,5.646,5.709,8.538,8.525
			c0.696,0.678,0.66,1.086,0,1.723c-1.62,1.535-3.162,3.162-4.752,4.728C20.979,53.538,18.749,54.334,16.494,54.132z"/>
		<path id="Path_132" fill="#0F96DC" d="M39.09,27.6c-0.762-0.882-1.554-1.674-2.195-2.574c-0.547-0.768,0.371-1.056,0.737-1.422
			c3.103-3.15,6.228-6.264,9.36-9.378c0.562-0.46,0.91-1.13,0.966-1.854c0.032-0.856,0.479-1.642,1.2-2.106
			c1.613-1.11,3.229-2.22,4.8-3.378c0.601-0.462,1.062-0.48,1.565,0.114c0.314,0.394,0.674,0.75,1.068,1.062
			c0.973,0.72,0.984,1.41,0.246,2.358c-0.88,1.155-1.697,2.357-2.447,3.6c-0.553,1.262-1.791,2.083-3.168,2.1
			c-0.715,0-1.057,0.57-1.477,0.984c-3.133,3.12-6.26,6.24-9.385,9.36C40.044,26.82,39.695,27.09,39.09,27.6z"/>
	</g>
</g>
</svg>
