<?xml version="1.0" standalone="no"?>
<!DOCTYPE svg PUBLIC "-//W3C//DTD SVG 1.1//EN" "http://www.w3.org/Graphics/SVG/1.1/DTD/svg11.dtd" >
<!--
2020-3-11: Created with FontForge (http://fontforge.org)
-->
<svg xmlns="http://www.w3.org/2000/svg" xmlns:xlink="http://www.w3.org/1999/xlink" version="1.1">
<metadata>
Created by FontForge 20170731 at Wed Mar 11 06:04:43 2020
 By root

</metadata>
<defs>
<font id="Flaticon" horiz-adv-x="512" >
  <font-face 
    font-family="Flaticon"
    font-weight="400"
    font-stretch="normal"
    units-per-em="512"
    panose-1="2 0 5 3 0 0 0 0 0 0"
    ascent="448"
    descent="-64"
    bbox="0 -64.001 512.001 448"
    underline-thickness="25.6"
    underline-position="-51.2"
    unicode-range="U+0020-F108"
  />
    <missing-glyph />
    <glyph glyph-name="space" unicode=" " horiz-adv-x="200" 
 />
    <glyph glyph-name="011-right-arrow" unicode="&#xf106;" 
d="M398.23 211.979c5.28223 -5.28711 8.18359 -12.3467 8.16699 -19.8848c0.0166016 -7.50977 -2.88477 -14.5732 -8.16699 -19.8643l-228.059 -228.05c-5.26953 -5.27441 -12.3047 -8.17969 -19.8057 -8.17969s-14.5312 2.90527 -19.8057 8.17969l-16.7793 16.7705
c-5.26953 5.27832 -8.17871 12.3086 -8.17871 19.8145c0 7.49609 2.90918 14.5273 8.17871 19.8008l191.541 191.541l-191.328 191.328c-10.9189 10.9141 -10.9189 28.6797 0 39.6104l16.7793 16.7754c5.26953 5.27441 12.3047 8.17969 19.8057 8.17969
s14.5352 -2.90527 19.8057 -8.17969z" />
    <glyph glyph-name="002-world" unicode="&#xf101;" 
d="M468.633 334.439c27.3467 -40.6943 43.3184 -89.7334 43.3506 -142.423c0 -120.634 -83.5566 -221.531 -195.879 -248.585l4.67773 16.917l43.9375 29.335l11.5225 31.4053l30.3623 14.1133l28.7646 54.9551l-44.4756 26.1572l-23.0439 26.1572l-13.5928 1.59766
l-27.2168 7.31738l-23.4355 3.69922l-20.5186 -5.76855l-12.5645 14.1133l-12.582 3.68359l1.05957 18.8066l-15.1895 -0.472656l-8.6377 -9.95801l-4.93848 20.9424l19.8506 9.41992l20.4375 -9.41992h10.9678l3.97656 16.2324l30.5576 36.6533l42.4385 21.4307
l24.5605 -3.12891l2.23242 12.0107l-30.46 30.9004l-11.4893 23.0117h-16.7871l-10.4629 6.12793l-22.5068 3.3252l-4.70996 -26.7441l-27.2656 5.24707l-2.06934 16.7383l20.9258 4.74219l6.89355 30.0039l20.7637 -8.54004l-0.538086 -12.7607l15.8252 -6.60059
l10.5605 -3.11328l12.9727 6.78027l-11.5391 13.5918l-23.582 23.0117l0.553711 11.0176l24.0713 -4.70996l20.4043 -18.3027l6.30762 -16.2314l4.70996 -15.2227l32.4648 -29.2695l8.36035 -2.65625l11.5225 18.3994l40.792 3.63379zM285.449 58.2148
c0 0 11.751 -39.7666 11.7666 -41.3467c0 -1.56445 -11.75 -47.6211 -11.75 -47.6211l2.67285 -31.0146c-10.5605 -1.27051 -21.2354 -2.23242 -32.1221 -2.23242c-141.364 0 -255.951 114.636 -255.951 255.983c0 47.1162 12.9395 91.1025 35.1367 129.011l18.416 4.25391
l-18.4648 -14.6357l14.4727 -9.48438h28.7646l42.6992 7.61035l26.8906 -43.7256v-40.8574l36.6855 -49.7402h6.22559v17.5527l14.1299 -29.5635l42.5693 -9.55078l19.2148 -19.2959l17.1123 -5.11719l-17.1123 -35.6592zM95.1768 365.453l-36.4404 -10.5273h-0.130859
c46.9043 56.8613 117.944 93.0742 197.395 93.0742c39.0322 0 75.8643 -9.0127 108.965 -24.5928l-9.15918 -1.38574l-25.1309 3.78125l-17.7646 -11.8643l-12.5977 -13.8857l-45.7139 -4.28613l-18.8242 3.09668l-12.9072 -20.29l-37.6797 -2.08594l-23.582 6.7959
l-20.959 -11.4902zM266.821 422.543l-15.0264 -9.35449l10.4473 -6.7793l23.207 2.33008l24.2998 18.498l-16.7861 9.69629zM189.393 420.441c-0.375 -3.04785 -16.7861 -13.6084 -16.7705 -13.6084l16.7705 -9.81152l34.876 9.15918l-8.22949 14.2607l-15.1084 -4.80762z
" />
    <glyph glyph-name="003-user" unicode="&#xf102;" 
d="M256.001 429.118c61.4092 0 111.368 -49.959 111.369 -111.369v-54.1045c-0.000976562 -61.4092 -49.96 -111.368 -111.369 -111.368s-111.369 49.959 -111.369 111.368v54.1045c0 61.4092 49.959 111.369 111.369 111.369zM511.184 -23.2988
c3.47266 -10.7646 -4.56445 -21.8184 -15.8887 -21.8193h-478.589c-11.3076 0 -19.3662 11.041 -15.8887 21.8193l50.0498 155.217c1.30566 4.0459 4.10449 7.44238 7.82715 9.49512l76.6826 42.2949c25.9551 -39.0371 70.332 -64.8223 120.623 -64.8223
c50.29 0 94.667 25.7842 120.623 64.8213l76.6816 -42.2949c3.72266 -2.05176 6.52344 -5.44922 7.82715 -9.49512z" />
    <glyph glyph-name="012-left-arrow" unicode="&#xf107;" 
d="M206.682 191.892l191.325 -191.325c10.9189 -10.915 10.9189 -28.6885 0 -39.6074l-16.7793 -16.7754c-5.27344 -5.27832 -12.3047 -8.18359 -19.8057 -8.18359c-7.50488 0 -14.5352 2.90527 -19.8057 8.18359l-227.844 227.832
c-5.29492 5.29004 -8.18848 12.3457 -8.16699 19.8887c-0.0214844 7.50977 2.87598 14.5732 8.16699 19.8594l228.057 228.053c5.26953 5.27832 12.2998 8.18359 19.8008 8.18359s14.54 -2.90527 19.8057 -8.18359l16.7842 -16.7754
c5.27344 -5.26953 8.1748 -12.3008 8.1748 -19.8057c0 -7.50098 -2.90137 -14.5361 -8.1748 -19.7969z" />
    <glyph glyph-name="004-shopping-cart" unicode="&#xf103;" 
d="M474.522 401.454c20.6982 0 37.4775 -16.7793 37.4775 -37.4746v-3.2959c0 -5.4668 -1.22754 -10.9775 -3.55664 -15.9434l-81.2002 -172.55c-7.68066 -16.3184 -24.0928 -26.7344 -42.1289 -26.7344h-225.494c-0.704102 -1.20801 -1.38574 -2.42969 -2.31348 -3.51172
l-36.8867 -43.0342h333.398c6.42676 0 11.6367 -5.20996 11.6367 -11.6367v-23.2725c0 -6.42676 -5.20996 -11.6367 -11.6367 -11.6367h-333.397c-20.4746 0 -38.2344 12.8643 -44.5518 32.9854c-4.93945 15.7334 -0.106445 32.9854 10.626 45.5059l27.1533 31.6787
l-72.7041 238.92h-29.3076c-6.42676 0 -11.6367 5.20996 -11.6367 11.6367v23.2725c0 6.42676 5.20996 11.6367 11.6367 11.6367h46.5449c10.2412 0 19.2783 -6.69629 22.2598 -16.4932l9.375 -30.8086c1.07715 0.324219 2.125 0.755859 3.27441 0.755859h381.432z
M93.0908 -17.4551c0 25.7061 20.8389 46.5459 46.5459 46.5459c25.7061 0 46.5459 -20.8398 46.5459 -46.5459c0 -25.707 -20.8398 -46.5459 -46.5459 -46.5459c-25.707 0 -46.5459 20.8389 -46.5459 46.5459zM372.363 -17.4551c0 25.7061 20.8398 46.5459 46.5459 46.5459
c25.707 0 46.5459 -20.8398 46.5459 -46.5459c0 -25.707 -20.8389 -46.5459 -46.5459 -46.5459c-25.7061 0 -46.5459 20.8389 -46.5459 46.5459z" />
    <glyph glyph-name="001-call" unicode="&#xf100;" 
d="M470.917 111.931c22.6523 0 41.083 -18.4307 41.084 -41.083v-93.7637c0 -22.6533 -18.4307 -41.084 -41.084 -41.084c-259.666 0 -470.917 211.249 -470.917 470.916c0 22.6533 18.4307 41.084 41.084 41.084h94.0264c22.6533 0 41.084 -18.4307 41.083 -41.085
c0 -31.3604 4.91699 -62.124 14.5977 -91.4443c4.70898 -15 0.77832 -30.9863 -10.1807 -41.9307l-42.1797 -56.0693c35.1523 -66.2627 76.2773 -107.375 143.041 -143.014l57.5693 43.459c8.72266 8.95898 26.292 13.4307 40.584 8.55566
c29.167 -9.63867 59.9453 -14.541 91.292 -14.541z" />
    <glyph glyph-name="009-order" unicode="&#xf104;" 
d="M458.732 25.7881c1.7793 -23.1211 -6.22754 -46.0928 -21.9512 -63.0674c-15.7256 -16.9736 -38.0176 -26.7207 -61.1592 -26.7207h-239.236c-23.1416 0 -45.4336 9.74707 -61.1592 26.7197c-15.7236 16.9746 -23.7305 39.9463 -21.9619 63.0283l22.8721 288.188
c1.41895 18.5234 17.124 33.0586 35.7373 33.0586h45.1641v-66.917c0 -8.28711 6.70801 -14.9951 14.9951 -14.9951c8.27637 0 14.9951 6.70801 14.9951 14.9951v66.917h137.95v-66.917c0 -8.28711 6.71875 -14.9951 14.9951 -14.9951
c8.28711 0 14.9951 6.70801 14.9951 14.9951v66.917h45.1641c18.6133 0 34.3184 -14.5352 35.7373 -33.0977zM323.56 172.507c5.8584 5.8584 5.8584 15.3545 0.000976562 21.2119c-5.85742 5.84863 -15.3545 5.84863 -21.2021 0l-66.9561 -66.9561l-25.751 25.7412
c-5.84863 5.8584 -15.3457 5.8584 -21.2031 0c-5.8584 -5.85742 -5.8584 -15.3447 0 -21.2031l36.3467 -36.3467c2.92871 -2.92871 6.7666 -4.39844 10.6064 -4.39844c3.83789 0 7.67676 1.46973 10.6055 4.39844zM256.004 448c54.5713 0 98.9648 -44.4043 98.9658 -98.9746
v-2.0293h-29.9883v2.0293c0 38.0361 -30.9395 68.9854 -68.9766 68.9854s-68.9756 -30.9492 -68.9756 -68.9854v-2.0293h-29.9902v2.0293c0 54.5703 44.3936 98.9746 98.9648 98.9746z" />
    <glyph glyph-name="010-truck" unicode="&#xf105;" 
d="M189.711 133.981c23.6328 0 42.7314 -19.166 42.7324 -42.7998c0 -23.5645 -19.0996 -42.7324 -42.7324 -42.7324s-42.7314 19.168 -42.7314 42.7324c0 23.6338 19.0986 42.7998 42.7314 42.7998zM189.711 69.8154c11.8164 0 21.3652 9.61914 21.3662 21.3672
c0 11.8154 -9.5498 21.3662 -21.3662 21.3662s-21.3662 -9.55078 -21.3662 -21.3662c0 -11.748 9.5498 -21.3672 21.3662 -21.3672zM512 165.596v-45.6289c0 -11.3818 -9.22656 -20.6094 -20.6104 -20.6094h-22.0527c-3.98535 27.3438 -27.5488 48.3652 -55.9912 48.3652
c-28.373 0 -51.9385 -21.0225 -55.9229 -48.3652h-111.775c-3.98535 27.3438 -27.5498 48.3652 -55.9229 48.3652s-51.9385 -21.0225 -55.9219 -48.3652h-27.6182c-11.3828 0 -20.6094 9.22656 -20.6094 20.6094v45.6289h426.425v0zM413.4 133.981
c23.5645 0 42.7314 -19.166 42.7314 -42.7998c0 -23.5645 -19.167 -42.7324 -42.7314 -42.7324c-23.6318 0 -42.7998 19.168 -42.7998 42.7324c0 23.6338 19.167 42.7998 42.7998 42.7998zM413.4 69.8154c11.748 0 21.3662 9.61914 21.3662 21.3672
c0 11.8154 -9.61816 21.3662 -21.3662 21.3662c-11.8164 0 -21.3652 -9.55078 -21.3652 -21.3662c0 -11.748 9.54883 -21.3672 21.3652 -21.3672zM503.879 211.546c5.15332 -5.15332 8.10645 -12.1592 8.10645 -19.5107v-15.0459h-426.426l0.00585938 40.4932
l-85.5654 16.1387l149.596 12.9707l-149.596 21.2686l150.125 14.9131l-148.201 19.2988l83.6367 9.63965v3.22949c0 11.4023 9.27441 20.6094 20.6104 20.6094h235.92c11.4033 0 20.6094 -9.20605 20.6094 -20.6094v-15.3213h40.876
c7.21387 0 14.1533 -2.88477 19.3057 -7.96875zM468.567 208.867c2.88379 0 4.32715 3.57227 2.19922 5.56348l-63.4111 60.5264c-0.618164 0.548828 -1.44336 0.892578 -2.26758 0.892578h-14.9082c-1.78613 0 -3.22852 -1.44238 -3.22852 -3.22852v-60.5264
c0 -1.78613 1.44238 -3.22754 3.22852 -3.22754h78.3877z" />
    <glyph glyph-name="013-facebook" unicode="&#xf108;" 
d="M437 448c41.3516 0 75 -33.6484 75 -75v-362c0 -41.3516 -33.6484 -75 -75 -75h-121v181h76l15 90h-91v61h91v90h-91c-49.6289 0 -90 -40.3711 -90 -90v-61h-60v-90h60v-181h-151c-41.3516 0 -75 33.6484 -75 75v362c0 41.3516 33.6484 75 75 75h362zM437 448z" />
  </font>
</defs></svg>
